{
  "project_info": {
    "project_number": "180569151031",
    "project_id": "market-31958",
    "storage_bucket": "market-31958.appspot.com"
  },
  "client": [
    {
      "client_info": {
        "mobilesdk_app_id": "1:180569151031:android:f8118e8327ba19096b11b2",
        "android_client_info": {
          "package_name": "com.example.discountella"
        }
      },
      "oauth_client": [
        {
          "client_id": "180569151031-ovsvsdl4g9jp8unv6ngpfadul91kicrr.apps.googleusercontent.com",
          "client_type": 3
        }
      ],
      "api_key": [
        {
          "current_key": "AIzaSyBZGpnM5kkW7_1TifG02AD7H5XeFfa6zOA"
        }
      ],
      "services": {
        "appinvite_service": {
          "other_platform_oauth_client": [
            {
              "client_id": "180569151031-ovsvsdl4g9jp8unv6ngpfadul91kicrr.apps.googleusercontent.com",
              "client_type": 3
            },
            {
              "client_id": "180569151031-5000ua2862g6hhv3e94c8nq18o5ajuqk.apps.googleusercontent.com",
              "client_type": 2,
              "ios_info": {
                "bundle_id": "com.example.discountella"
              }
            }
          ]
        }
      }
    }
  ],
  "configuration_version": "1"
}